{   "TOTAL":126,
     "NEW":7,
     "CONFIRMED":114,
     "DECLINED":2,
     "ACTUALLY_FOUND":1,
     "NOT_ACTUALLY_FOUND":1,
     "DISPOSED":1,
     "DUPLICATED":3,
     "count":128,
     "next":"https://minefree.quantumobile.com/api/v0/report/operator/?limit=10&offset=10&search=",
     "previous":null,
     "results":
     [
        {
        "pk":2356,
        "created_datetime":"2022-06-09T10:52:58.150754Z",
        "maro_directory":null,
        "address":"",
        "location":"SRID=4326;POINT (30.4769246 50.4517269)",
        "user":
        {"pk":44,
        "first_name":"",
        "middle_name":"",
        "last_name":"",
        "phone":"",
        "email":""},
        "status":"CONFIRMED",
        "custom_id":"DPI-000682"},
        {"pk":2349,
         "created_datetime":"2022-06-09T10:52:57.759567Z",
         "maro_directory":null,
         "address":"",
         "location":"SRID=4326;POINT (30.617504753172398 50.50541758317483)",
         "user":{
            "pk":44,
            "first_name":"",
            "middle_name":"",
            "last_name":"",
            "phone":"",
            "email":""},
            "status":"NEW",
            "custom_id":"DPI-000691"},
            {"pk":2341,
             "created_datetime":"2022-06-09T10:52:57.403232Z",
             "maro_directory":null,
             "address":"",
             "location":"SRID=4326;POINT (30.4620585994386 50.428779352025934)",
             "user":{
                "pk":44,
                "first_name":"","middle_name":"","last_name":"","phone":"","email":""},"status":"CONFIRMED","custom_id":"DPI-000700"},{"pk":2325,"created_datetime":"2022-06-09T09:20:54.801933Z","maro_directory":null,"address":"","location":"SRID=4326;POINT (30.617504753172398 50.50541758317483)","user":{"pk":44,"first_name":"","middle_name":"","last_name":"","phone":"","email":""},"status":"NEW","custom_id":"DPI-000691"},{"pk":2317,"created_datetime":"2022-06-09T09:20:54.445226Z","maro_directory":null,"address":"","location":"SRID=4326;POINT (30.4620585994386 50.428779352025934)","user":{"pk":44,"first_name":"","middle_name":"","last_name":"","phone":"","email":""},"status":"CONFIRMED","custom_id":"DPI-000700"},{"pk":2296,"created_datetime":"2022-06-06T13:51:22.029449Z","maro_directory":null,"address":"","location":"SRID=4326;POINT (30.4760663 50.4612756)","user":{"pk":44,"first_name":"","middle_name":"","last_name":"","phone":"","email":""},"status":"NEW","custom_id":"DPI-000670"},{"pk":2294,"created_datetime":"2022-06-06T09:07:38.523217Z","maro_directory":null,"address":"","location":"SRID=4326;POINT (30.516843460500244 50.461814947642466)","user":{"pk":6,"first_name":"Сергій","middle_name":"","last_name":"Степаненко","phone":"+380954260382","email":""},"status":"NEW","custom_id":"MF-002294"},{"pk":2260,"created_datetime":"2022-06-03T08:22:12.402842Z","maro_directory":null,"address":"","location":"SRID=4326;POINT (30.424133576452736 50.455358548977586)","user":{"pk":6,"first_name":"Сергій","middle_name":"","last_name":"Степаненко","phone":"+380954260382","email":""},"status":"CONFIRMED","custom_id":"MF-002260"},{"pk":2256,"created_datetime":"2022-06-02T16:39:56.762546Z","maro_directory":null,"address":"","location":"SRID=4326;POINT (30.5174895375967 50.516039448073386)","user":{"pk":6,"first_name":"Сергій","middle_name":"","last_name":"Степаненко","phone":"+380954260382","email":""},"status":"CONFIRMED","custom_id":"MF-002256"},{"pk":2252,"created_datetime":"2022-06-02T16:34:52.803579Z","maro_directory":null,"address":"","location":"SRID=4326;POINT (30.747968740761284 50.56755858716286)","user":{"pk":6,"first_name":"Сергій","middle_name":"","last_name":"Степаненко","phone":"+380954260382","email":""},"status":"CONFIRMED","custom_id":"MF-002252"}]}